<?xml version="1.0" encoding="UTF-8"?>
<svg width="20px" height="20px" viewBox="0 0 20 20" version="1.1" xmlns="http://www.w3.org/2000/svg" xmlns:xlink="http://www.w3.org/1999/xlink">
    <!-- Generator: Sketch 63.1 (92452) - https://sketch.com -->
    <title>admin_inactive</title>
    <desc>Created with Sketch.</desc>
    <g id="Web" stroke="none" stroke-width="1" fill="none" fill-rule="evenodd">
        <g id="4.1-Set-Rewards" transform="translate(-26.000000, -375.000000)" fill="#000000" fill-rule="nonzero">
            <g id="admin_inactive" transform="translate(26.000000, 375.000000)">
                <g id="Group">
                    <path d="M11.0699715,0 C11.9192202,0 12.6326605,0.638559667 12.7264444,1.48261413 L12.7264444,1.48261413 L12.9436667,3.43866667 L13.078102,3.50702767 C13.2507096,3.5978774 13.4195762,3.6955739 13.5843139,3.799854 L13.5843139,3.799854 L13.7093333,3.88133333 L15.5130504,3.09146183 C16.2673432,2.7609813 17.1456299,3.03172297 17.5853469,3.7190506 L17.5853469,3.7190506 L17.6252683,3.7847024 L19.0285731,6.2152976 C19.4531975,6.95076857 19.2569088,7.88790587 18.5728281,8.39115227 L18.5728281,8.39115227 L16.9863333,9.558 L16.9930031,9.6771489 L16.9968882,9.78457097 L17,10 C17,10.1438633 16.9958453,10.2872601 16.9875696,10.4300622 L16.9875696,10.4300622 L16.9863333,10.4416667 L18.5728281,11.6088477 C19.2355312,12.0963677 19.4404531,12.9910841 19.0665666,13.7151806 L19.0665666,13.7151806 L19.0285731,13.7847024 L17.6252683,16.2152976 C17.200644,16.9507686 16.2909149,17.2493462 15.5130504,16.9085382 L15.5130504,16.9085382 L13.7093333,16.1183333 L13.5843139,16.200146 C13.4195762,16.3044261 13.2507096,16.4021226 13.078102,16.4929723 L13.078102,16.4929723 L12.9436667,16.561 L12.7264444,18.5173859 C12.6354189,19.3366152 11.9606512,19.9622599 11.1445404,19.9983539 L11.1445404,19.9983539 L11.0699715,20 L8.26336187,20 C7.41411317,20 6.7006728,19.3614403 6.60688897,18.5173859 L6.60688897,18.5173859 L6.38933333,16.561 L6.2552102,16.4929612 C6.0826059,16.4021125 5.9137425,16.3044173 5.7490079,16.2001387 L5.7490079,16.2001387 L5.62333333,16.1183333 L3.82028297,16.9085382 C3.0659901,17.2390187 2.1877034,16.968277 1.74798647,16.2809494 L1.74798647,16.2809494 L1.70806503,16.2152976 L0.304760233,13.7847024 C-0.119864133,13.0492314 0.0764245667,12.1120941 0.760505267,11.6088477 L0.760505267,11.6088477 L2.34666667,10.4416667 L2.3403302,10.3228511 L2.33644513,10.215429 L2.33333333,10 C2.33333333,9.85613673 2.33748803,9.71273993 2.34576377,9.56993777 L2.34576377,9.56993777 L2.34666667,9.558 L0.760505267,8.39115227 C0.0978021,7.9036323 -0.107119733,7.0089159 0.2667667,6.28481943 L0.2667667,6.28481943 L0.304760233,6.2152976 L1.70806503,3.7847024 C2.13268937,3.04923143 3.04241843,2.7506538 3.82028297,3.09146183 L3.82028297,3.09146183 L5.62333333,3.88133333 L5.7490079,3.7998613 C5.9137425,3.69558273 6.0826059,3.5978875 6.2552102,3.5070388 L6.2552102,3.5070388 L6.38933333,3.43866667 L6.60688897,1.48261413 C6.69791447,0.6633848 7.37268213,0.0377401 8.1887929,0.00164613333 L8.1887929,0.00164613333 L8.26336187,0 L11.0699715,0 Z M11.0699715,1 L8.26336187,1 C7.9236624,1 7.63828623,1.25542387 7.6007727,1.59304563 L7.6007727,1.59304563 L7.33333333,4 L7.33326203,4.11036913 C6.7533675,4.3403106 6.21550307,4.65341833 5.73438527,5.03497577 L5.73438527,5.03497577 L5.6371809,4.97927407 L3.4189776,4.00740617 C3.1078318,3.87108297 2.74394017,3.990514 2.57409043,4.2847024 L2.57409043,4.2847024 L1.17078563,6.7152976 C1.0009359,7.009486 1.07945137,7.3843409 1.35308363,7.58563947 L1.35308363,7.58563947 L3.30384757,9.02072593 L3.4002007,9.07635663 C3.3561452,9.3778643 3.33333333,9.68626817 3.33333333,10 C3.33333333,10.3137318 3.3561452,10.6221357 3.4002007,10.9236434 L3.4002007,10.9236434 L3.30384757,10.9792741 L1.35308363,12.4143605 C1.07945137,12.6156591 1.0009359,12.990514 1.17078563,13.2847024 L1.17078563,13.2847024 L2.57409043,15.7152976 C2.74394017,16.009486 3.1078318,16.128917 3.4189776,15.9925938 L3.4189776,15.9925938 L5.6371809,15.0207259 L5.73438527,14.9650242 C6.21550307,15.3465817 6.7533675,15.6596894 7.33326203,15.8896309 L7.33326203,15.8896309 L7.33333333,16 L7.6007727,18.4069544 C7.63828623,18.7445761 7.9236624,19 8.26336187,19 L8.26336187,19 L11.0699715,19 C11.4096709,19 11.6950471,18.7445761 11.7325606,18.4069544 L11.7325606,18.4069544 L12,16 L12.0000411,15.8896428 C12.5799472,15.6597003 13.1178219,15.3465883 13.5989481,14.9650242 L13.5989481,14.9650242 L13.6961524,15.0207259 L15.9143557,15.9925938 C16.2255015,16.128917 16.5893932,16.009486 16.7592429,15.7152976 L16.7592429,15.7152976 L18.1625477,13.2847024 C18.3323974,12.990514 18.253882,12.6156591 17.9802497,12.4143605 L17.9802497,12.4143605 L16.0294858,10.9792741 L15.9331326,10.9236434 C15.9771881,10.6221357 16,10.3137318 16,10 C16,9.68626817 15.9771881,9.3778643 15.9331326,9.07635663 L15.9331326,9.07635663 L16.0294858,9.02072593 L17.9802497,7.58563947 C18.253882,7.3843409 18.3323974,7.009486 18.1625477,6.7152976 L18.1625477,6.7152976 L16.7592429,4.2847024 C16.5893932,3.990514 16.2255015,3.87108297 15.9143557,4.00740617 L15.9143557,4.00740617 L13.6961524,4.97927407 L13.5989481,5.03497577 C13.1178219,4.6534117 12.5799472,4.34029973 12.0000411,4.11035717 L12.0000411,4.11035717 L12,4 L11.7325606,1.59304563 C11.6950471,1.25542387 11.4096709,1 11.0699715,1 L11.0699715,1 Z M9.66666667,7 C11.3235209,7 12.6666667,8.34314577 12.6666667,10 C12.6666667,11.6568542 11.3235209,13 9.66666667,13 C8.00981243,13 6.66666667,11.6568542 6.66666667,10 C6.66666667,8.34314577 8.00981243,7 9.66666667,7 Z M9.66666667,8 C8.56209717,8 7.66666667,8.8954305 7.66666667,10 C7.66666667,11.1045695 8.56209717,12 9.66666667,12 C10.7712362,12 11.6666667,11.1045695 11.6666667,10 C11.6666667,8.8954305 10.7712362,8 9.66666667,8 Z" id="Shape"></path>
                </g>
            </g>
        </g>
    </g>
</svg>