<?xml version="1.0" encoding="UTF-8"?>
<svg width="20px" height="19px" viewBox="0 0 20 19" version="1.1" xmlns="http://www.w3.org/2000/svg" xmlns:xlink="http://www.w3.org/1999/xlink">
    <!-- Generator: Sketch 63.1 (92452) - https://sketch.com -->
    <title>balance_inactive</title>
    <desc>Created with Sketch.</desc>
    <g id="Web" stroke="none" stroke-width="1" fill="none" fill-rule="evenodd">
        <g id="4.1-Set-Rewards" transform="translate(-26.000000, -157.000000)" fill="#000000" fill-rule="nonzero" stroke="#000000" stroke-width="0.3">
            <g id="balance_inactive" transform="translate(27.000000, 157.000000)">
                <g id="Group" transform="translate(0.000000, 0.128499)">
                    <path d="M9.06593407,0.173699267 C4.11780971,0.173699267 0.100732601,4.19077234 0.100732601,9.13890476 C0.100732601,14.0870311 4.11780971,18.1041062 9.06593407,18.1041062 C14.0140423,18.1041062 18.0311355,14.0870311 18.0311355,9.13890476 C18.0311355,4.19077234 14.0140423,0.173699267 9.06593407,0.173699267 L9.06593407,0.173699267 Z M9.06593407,0.715136996 C13.7200643,0.715136996 17.4896978,4.48475037 17.4896978,9.13890476 C17.4896978,13.7930531 13.7200643,17.5626685 9.06593407,17.5626685 C4.4117837,17.5626685 0.64217033,13.7930531 0.64217033,9.13890476 C0.64217033,4.48475037 4.4117837,0.715136996 9.06593407,0.715136996 L9.06593407,0.715136996 Z M9.05963828,3.68670165 C8.91041579,3.69088352 8.7924087,3.81450999 8.7952152,3.96376337 L8.7952152,4.95220201 C8.27404084,4.99900641 7.72555586,5.17394066 7.26533883,5.49993553 C6.72471099,5.88288864 6.30837912,6.49112418 6.30837912,7.27534762 C6.30837912,7.87850421 6.61458608,8.42508132 7.10794414,8.80521795 C7.54365293,9.14093956 8.12527088,9.35785714 8.7952152,9.40332784 L8.7952152,12.7841557 C8.38500788,12.7292564 7.93619579,12.5556941 7.58012821,12.2930842 C7.14408901,11.9715055 6.85611264,11.5375495 6.85611264,11.0024579 C6.85611264,10.8512054 6.73349831,10.7285911 6.58224588,10.7285911 C6.43099345,10.7285911 6.30837912,10.8512054 6.30837912,11.0024579 C6.30837912,11.7381685 6.72262179,12.3381722 7.25904304,12.7337894 C7.71571227,13.0705989 8.26799084,13.2781081 8.7952152,13.3318993 L8.7952152,14.3140421 C8.78516035,14.4170619 8.83444832,14.5168601 8.92236474,14.5714942 C9.01028116,14.6261284 9.12158697,14.6261284 9.20950339,14.5714942 C9.29741981,14.5168601 9.34670778,14.4170619 9.33665293,14.3140421 L9.33665293,13.3318993 C9.85782729,13.2850989 10.4063123,13.1038608 10.8665293,12.77787 C11.4071571,12.3949048 11.823489,11.7866813 11.823489,11.0024579 C11.823489,10.3992912 11.5172821,9.85271612 11.023924,9.47257143 C10.5882192,9.13684982 10.0065892,8.9262381 9.33665293,8.8807674 L9.33665293,5.50623132 C9.74686026,5.55960147 10.1956723,5.72210531 10.5517399,5.98471117 C10.9877791,6.30629799 11.2757555,6.74025201 11.2757555,7.27534762 C11.2757555,7.42660005 11.3983698,7.54921438 11.5496223,7.54921438 C11.7008747,7.54921438 11.823489,7.42660005 11.823489,7.27534762 C11.823489,6.539637 11.4092463,5.93962527 10.8728251,5.54400604 C10.4161559,5.20720458 9.86387729,5.00599524 9.33665293,4.95220201 L9.33665293,3.96376337 C9.33802658,3.88988197 9.30928251,3.81862127 9.25703144,3.76637021 C9.20478037,3.71411914 9.13351968,3.68537507 9.05963828,3.68670165 L9.05963828,3.68670165 Z M8.7952152,5.49993553 L8.7952152,8.86189011 C8.23552674,8.81756777 7.77250733,8.63206465 7.44162088,8.37711044 C7.0590848,8.08235879 6.85611264,7.69830165 6.85611264,7.27534762 C6.85611264,6.67529762 7.14199982,6.25282509 7.57383242,5.94693645 C7.92736758,5.69650916 8.37880879,5.54705623 8.7952152,5.49993553 Z M9.33665293,9.42220513 C9.89634139,9.46652747 10.3593608,9.64573077 10.6902473,9.90068498 C11.0727833,10.1954487 11.2757555,10.5795018 11.2757555,11.0024579 C11.2757555,11.6025018 10.9835725,12.0312802 10.5517399,12.3371648 C10.1990046,12.587022 9.75073846,12.742956 9.33665293,12.7904615 L9.33665293,9.42220513 Z" id="Shape"></path>
                </g>
            </g>
        </g>
    </g>
</svg>