<?xml version="1.0" encoding="UTF-8"?>
<svg width="137px" height="37px" viewBox="0 0 137 37" version="1.1" xmlns="http://www.w3.org/2000/svg" xmlns:xlink="http://www.w3.org/1999/xlink">
    <!-- Generator: Sketch 53.2 (72643) - https://sketchapp.com -->
    <title>jumna_logo@2x</title>
    <desc>Created with Sketch.</desc>
    <g id="Page-1" stroke="none" stroke-width="1" fill="none" fill-rule="evenodd">
        <g id="Final---v6-Copy" transform="translate(-64.000000, -20.000000)" fill="#1A7CFA" fill-rule="nonzero">
            <g id="Group" transform="translate(64.000000, 20.000000)">
                <g id="Group-16" transform="translate(0.000000, 0.702703)">
                    <path d="M0.8984375,35.8597973 L0.8984375,29.4144848 L4.4375,29.4613598 C5.2968793,29.4613598 6.09374633,29.2855803 6.828125,28.934016 C7.56250367,28.5824518 8.19921605,28.1137065 8.73828125,27.527766 C9.27734645,26.9418256 9.70312344,26.2660511 10.015625,25.5004223 C10.3281266,24.7347935 10.484375,23.930114 10.484375,23.0863598 L10.484375,1.1957348 L17.0234375,1.1957348 L17.0234375,23.0863598 L16.9765625,23.0863598 C16.9609374,24.2582407 16.8007828,25.3910418 16.4960938,26.4847973 C16.1914047,27.5785528 15.7578153,28.5980738 15.1953125,29.543391 C14.6328097,30.4887083 13.9609414,31.3480747 13.1796875,32.121516 C12.3984336,32.8949574 11.535161,33.5590133 10.5898438,34.1137035 C9.64452652,34.6683938 8.62891168,35.098077 7.54296875,35.402766 C6.45702582,35.7074551 5.32813086,35.8597973 4.15625,35.8597973 L0.8984375,35.8597973 Z M40.296875,23.3676098 C39.7812474,23.8363621 39.2304717,24.277764 38.6445312,24.6918285 C38.0585908,25.1058931 37.4453157,25.4652645 36.8046875,25.7699535 C36.1640593,26.0746426 35.5039096,26.3168276 34.8242188,26.496516 C34.1445279,26.6762044 33.4531285,26.7660473 32.75,26.7660473 C31.2031173,26.7660473 29.7500068,26.4926125 28.390625,25.9457348 C27.0312432,25.3988571 25.8398489,24.6215211 24.8164062,23.6137035 C23.7929636,22.605886 22.9882842,21.3793358 22.4023438,19.934016 C21.8164033,18.4886963 21.5234375,16.8676188 21.5234375,15.0707348 L21.5234375,1.1957348 L27.8984375,1.1957348 L27.8984375,15.0707348 C27.8984375,15.914489 28.0273425,16.6683877 28.2851562,17.3324535 C28.54297,17.9965194 28.8906228,18.5551075 29.328125,19.0082348 C29.7656272,19.4613621 30.2773408,19.8051086 30.8632812,20.0394848 C31.4492217,20.273861 32.0781216,20.3910473 32.75,20.3910473 C33.4062533,20.3910473 34.0273408,20.2387051 34.6132812,19.934016 C35.1992217,19.629327 35.7109353,19.2269873 36.1484375,18.7269848 C36.5859397,18.2269823 36.9296863,17.6605817 37.1796875,17.027766 C37.4296887,16.3949504 37.5546875,15.7426132 37.5546875,15.0707348 L37.5546875,1.1957348 L43.953125,1.1957348 L43.953125,26.2972973 L42.40625,26.2972973 L40.296875,23.3676098 Z M80.75,26.2972973 L74.375,26.2972973 L74.375,10.3597973 C74.375,9.92229511 74.2929696,9.50823675 74.1289062,9.1176098 C73.9648429,8.72698284 73.7343765,8.38323628 73.4375,8.0863598 C73.1406235,7.78948331 72.796877,7.55901687 72.40625,7.39495355 C72.015623,7.23089023 71.6015647,7.1488598 71.1640625,7.1488598 C70.7265603,7.1488598 70.3164082,7.23089023 69.9335938,7.39495355 C69.5507793,7.55901687 69.2148452,7.78948331 68.9257812,8.0863598 C68.6367173,8.38323628 68.4101571,8.72698284 68.2460938,9.1176098 C68.0820304,9.50823675 68,9.92229511 68,10.3597973 L68,26.2972973 L61.6015625,26.2972973 L61.6015625,10.3597973 C61.6015625,9.92229511 61.5195321,9.50823675 61.3554688,9.1176098 C61.1914054,8.72698284 60.960939,8.38323628 60.6640625,8.0863598 C60.367186,7.78948331 60.0234395,7.55901687 59.6328125,7.39495355 C59.2421855,7.23089023 58.8281272,7.1488598 58.390625,7.1488598 C57.9531228,7.1488598 57.5429707,7.23089023 57.1601562,7.39495355 C56.7773418,7.55901687 56.4414077,7.78948331 56.1523438,8.0863598 C55.8632798,8.38323628 55.6367196,8.72698284 55.4726562,9.1176098 C55.3085929,9.50823675 55.2265625,9.92229511 55.2265625,10.3597973 L55.2265625,26.2972973 L48.828125,26.2972973 L48.828125,1.1957348 L50.375,1.1957348 L52.109375,3.1176098 C53.0000045,2.36760605 53.9804634,1.78558062 55.0507812,1.37151605 C56.1210991,0.957451477 57.2343692,0.750422297 58.390625,0.750422297 C59.5625059,0.750422297 60.7070257,0.96917011 61.8242188,1.4066723 C62.9414118,1.84417448 63.9218708,2.60197941 64.765625,3.6801098 C65.156252,3.14885714 65.60156,2.69573667 66.1015625,2.3207348 C66.601565,1.94573292 67.1289035,1.64104847 67.6835938,1.4066723 C68.238284,1.17229613 68.812497,1.00432906 69.40625,0.902766047 C70.000003,0.801203039 70.5859346,0.750422297 71.1640625,0.750422297 C72.4921941,0.750422297 73.7382754,1.0004198 74.9023438,1.5004223 C76.0664121,2.0004248 77.0820269,2.68401171 77.9492188,3.55120355 C78.8164106,4.41839538 79.4999975,5.43791644 80,6.6097973 C80.5000025,7.78167816 80.75,9.03166566 80.75,10.3597973 L80.75,26.2972973 Z M91.8125,26.2972973 L85.4140625,26.2972973 L85.4140625,1.1957348 L86.9609375,1.1957348 L89.0703125,3.6332348 C90.1015677,2.69573011 91.2695247,1.97308109 92.5742188,1.46526605 C93.8789128,0.957451008 95.2421804,0.703547297 96.6640625,0.703547297 C98.1953202,0.703547297 99.6406182,0.996513118 101,1.58245355 C102.359382,2.16839398 103.54687,2.97307343 104.5625,3.99651605 C105.57813,5.01995866 106.378903,6.21525921 106.964844,7.58245355 C107.550784,8.94964788 107.84375,10.4066646 107.84375,11.9535473 L107.84375,26.2972973 L101.445312,26.2972973 L101.445312,11.9535473 C101.445312,11.297294 101.320314,10.6762065 101.070312,10.090266 C100.820311,9.50432562 100.476565,8.99261198 100.039062,8.5551098 C99.6015603,8.11760761 99.0937529,7.77386105 98.515625,7.5238598 C97.9374971,7.27385855 97.3203158,7.1488598 96.6640625,7.1488598 C95.9921841,7.1488598 95.359378,7.27385855 94.765625,7.5238598 C94.171872,7.77386105 93.6562522,8.11760761 93.21875,8.5551098 C92.7812478,8.99261198 92.4375012,9.50432562 92.1875,10.090266 C91.9374988,10.6762065 91.8125,11.297294 91.8125,11.9535473 L91.8125,26.2972973 Z M136.695312,26.2972973 L135.148438,26.2972973 L132.664062,22.8519848 C132.054684,23.3988625 131.41016,23.9105762 130.730469,24.387141 C130.050778,24.8637059 129.335941,25.2777643 128.585938,25.6293285 C127.835934,25.9808928 127.06641,26.2582338 126.277344,26.4613598 C125.488277,26.6644858 124.687504,26.7660473 123.875,26.7660473 C122.109366,26.7660473 120.449227,26.4691753 118.894531,25.8754223 C117.339836,25.2816693 115.980475,24.4183967 114.816406,23.2855785 C113.652338,22.1527604 112.734378,20.7660555 112.0625,19.1254223 C111.390622,17.4847891 111.054688,15.6176203 111.054688,13.5238598 C111.054688,11.570725 111.390622,9.77777421 112.0625,8.14495355 C112.734378,6.51213288 113.652338,5.10980316 114.816406,3.9379223 C115.980475,2.76604144 117.339836,1.85589429 118.894531,1.20745355 C120.449227,0.559012805 122.109366,0.234797297 123.875,0.234797297 C124.687504,0.234797297 125.492184,0.336358782 126.289062,0.539484797 C127.085941,0.742610813 127.859371,1.023858 128.609375,1.3832348 C129.359379,1.74261159 130.074215,2.16448238 130.753906,2.6488598 C131.433597,3.13323722 132.07031,3.65666948 132.664062,4.2191723 L135.148438,1.2426098 L136.695312,1.2426098 L136.695312,26.2972973 Z M130.25,13.5238598 C130.25,12.6488554 130.082033,11.8012076 129.746094,10.980891 C129.410155,10.1605744 128.953128,9.43401921 128.375,8.80120355 C127.796872,8.16838788 127.121098,7.66058046 126.347656,7.27776605 C125.574215,6.89495163 124.750004,6.7035473 123.875,6.7035473 C122.999996,6.7035473 122.175785,6.85198331 121.402344,7.1488598 C120.628902,7.44573628 119.957034,7.88323191 119.386719,8.4613598 C118.816403,9.03948769 118.367189,9.75432429 118.039062,10.605891 C117.710936,11.4574578 117.546875,12.4301043 117.546875,13.5238598 C117.546875,14.6176153 117.710936,15.5902618 118.039062,16.4418285 C118.367189,17.2933953 118.816403,18.0082319 119.386719,18.5863598 C119.957034,19.1644877 120.628902,19.6019833 121.402344,19.8988598 C122.175785,20.1957363 122.999996,20.3441723 123.875,20.3441723 C124.750004,20.3441723 125.574215,20.152768 126.347656,19.7699535 C127.121098,19.3871391 127.796872,18.8793317 128.375,18.246516 C128.953128,17.6137004 129.410155,16.8871451 129.746094,16.0668285 C130.082033,15.2465119 130.25,14.3988642 130.25,13.5238598 Z" id="jumna_logo"></path>
                </g>
            </g>
        </g>
    </g>
</svg>